…
Note that some files (calendar.txt, calendar_dates.txt and
feed_info.txt) are conditionally required. This means that:

 calendar.txt is initially set as a required file. If it's not
present, however, it becomes optional and calendar_dates.txt
(originally set as optional) becomes required.

 feed_info.txt is initially set as an optional file. If
translations.txt is present, however, it becomes required.

Examples

validate_gtfs(gtfs_duke)
#> # A tibble: 233 × 8
#>    file   file_spec file_provided_status field  field_spec field_provided_status
#>    <chr>  <chr>     <lgl>                <chr>  <chr>      <lgl>                
#>  1 agency req       TRUE                 agenc… opt        TRUE                 
#>  2 agency req       TRUE                 agenc… req        TRUE                 
#>  3 agency req       TRUE                 agenc… req        TRUE                 
#>  4 agency req       TRUE                 agenc… req        TRUE                 
#>  5 agency req       TRUE                 agenc… opt        TRUE                 
#>  6 agency req       TRUE                 agenc… opt        TRUE                 
#>  7 agency req       TRUE                 agenc… opt        TRUE                 
#>  8 agency req       TRUE                 agenc… opt        FALSE                
#>  9 stops  req       TRUE                 stop_… req        TRUE                 
#> 10 stops  req       TRUE                 stop_… opt        TRUE                 
#> # 223 more rows
#> # 2 more variables: validation_status <chr>, validation_details <chr>
…
